<?xml version="1.0" encoding="UTF-8" standalone="no"?>
<svg
   xmlns="http://www.w3.org/2000/svg"
   viewBox="0 0 793.70135 1122.52"
   height="1122.52"
   width="793.70135"
   xml:space="preserve"
   id="svg2"
   version="1.1">
    <defs
     id="defs6"><clipPath
       id="clipPath30"
       clipPathUnits="userSpaceOnUse"><path
         id="path28"
         d="M 0,841.89 H 595.276 V 0 H 0 Z" /></clipPath></defs><g
     transform="matrix(1.3333333,0,0,-1.3333333,0,1122.52)"
     id="g10"><g
       transform="translate(151.9727,414.4893)"
       id="g12"><path
         id="path14"
         style="fill:#231f20;fill-opacity:1;fill-rule:nonzero;stroke:none"
         d="m 0,0 h -14.266 l 7.177,18.002 z m -9.127,22.55 -16.038,-39.32 h 4.076 l 5.316,13.17 H 1.506 l 5.317,-13.17 h 4.076 l -15.95,39.32 z" /></g><g
       transform="translate(367.0225,437.04)"
       id="g16"><path
         id="path18"
         style="fill:#231f20;fill-opacity:1;fill-rule:nonzero;stroke:none"
         d="M 0,0 V -3.601 H -16.569 V -17.718 H -0.62 v -3.6 H -16.569 V -35.721 H 0 V -39.32 H -20.291 V 0 Z" /></g><g
       transform="translate(418.7686,437.04)"
       id="g20"><path
         id="path22"
         style="fill:#231f20;fill-opacity:1;fill-rule:nonzero;stroke:none"
         d="M 0,0 20.735,-32.593 V 0 h 3.721 V -39.32 H 20.735 L -1.329,-4.737 V -39.32 H -5.05 l 0,39.32 z" /></g><g
       id="g24"><g
         clip-path="url(#clipPath30)"
         id="g26"><g
           transform="translate(469.8848,436.7549)"
           id="g32"><path
             id="path34"
             style="fill:#231f20;fill-opacity:1;fill-rule:nonzero;stroke:none"
             d="m 0,0 c 0,3.662 -3,6.591 -6.546,6.591 -3.726,0 -6.636,-2.929 -6.636,-6.591 0,-3.661 2.91,-6.59 6.636,-6.59 C -3,-6.59 0,-3.661 0,0 m -1.183,0 c 0,-3.021 -2.454,-5.401 -5.363,-5.401 -2.999,0 -5.453,2.38 -5.453,5.401 0,2.929 2.454,5.309 5.453,5.309 2.909,0 5.363,-2.38 5.363,-5.309" /></g><g
           transform="translate(466.7939,438.0371)"
           id="g36"><path
             id="path38"
             style="fill:#231f20;fill-opacity:1;fill-rule:nonzero;stroke:none"
             d="m 0,0 c 0,0.732 -0.182,1.464 -0.818,1.922 -0.546,0.275 -1.364,0.275 -1.999,0.275 h -3.365 v -7.049 h 1.365 v 3.021 h 1.362 l 1.638,-3.021 h 1.635 L -2,-1.831 c 1.271,0 2,0.549 2,1.831 m -1.454,0.275 c 0,-0.916 -0.546,-1.099 -1.274,-1.099 H -4.817 V 1.19 h 1.725 c 0.638,0 1.638,0 1.638,-0.915" /></g><g
           transform="translate(216.1245,437.04)"
           id="g40"><path
             id="path42"
             style="fill:#231f20;fill-opacity:1;fill-rule:nonzero;stroke:none"
             d="m 0,0 c 3.544,0 7.443,-0.095 10.544,-1.896 3.722,-2.368 5.76,-6.347 5.76,-10.895 0,-6.443 -4.874,-11.654 -10.899,-11.845 L 15.772,-39.32 h -4.608 l -12.581,17.812 h 1.151 c 2.57,0 5.582,-0.095 8.063,1.042 3.013,1.516 4.785,4.454 4.785,7.96 0,2.747 -1.329,5.494 -3.455,7.105 -2.482,1.8 -5.494,1.8 -8.33,1.8 H -5.14 V -39.32 H -8.772 V 0 Z" /></g><g
           transform="translate(286.124,401.3203)"
           id="g44"><path
             id="path46"
             style="fill:#231f20;fill-opacity:1;fill-rule:nonzero;stroke:none"
             d="m 0,0 h -4.519 v 15.349 h 3.899 c 2.392,0 5.14,0 7.443,-0.853 C 9.658,13.454 11.519,10.801 11.43,7.484 11.519,4.926 9.924,2.273 7.798,1.137 5.582,-0.095 2.481,-0.095 0,0 M -8.24,35.72 V -3.602 h 8.683 c 3.722,0.096 6.912,0 10.19,2.181 2.835,1.895 4.518,5.4 4.518,8.905 0,4.549 -2.126,8.244 -6.113,9.949 2.569,1.895 4.165,4.453 4.165,7.864 0,3.411 -1.684,6.538 -4.343,8.433 -2.569,1.8 -5.493,1.99 -8.417,1.99 z m 7.708,-16.866 h -3.987 v 13.265 h 4.253 c 2.216,0.095 4.873,0.095 6.823,-1.137 1.683,-1.137 2.924,-3.316 2.924,-5.4 0,-2.18 -1.241,-4.548 -3.012,-5.496 -2.127,-1.232 -4.697,-1.232 -7.001,-1.232" /></g></g></g></g></svg>
